<svg xmlns="http://www.w3.org/2000/svg" width="44" height="68" viewBox="0 0 44 68">
    <g fill="#40AF28" fill-rule="evenodd">
        <path d="M25.952 26.517l.308-.497L43.116 0h-6.519L9.37 42.009 5.64 24.676H0L5.148 48.52l-.019.03.033.033.185.856-.065.074.068-.06.678 3.143h.014l.885 4.046 4.273-7.078h.007l13.923-21.8.81-1.25zM0 64h40v4H0z"/>
    </g>
</svg>
