<svg xmlns="http://www.w3.org/2000/svg" width="942" height="1480" viewBox="0 0 942 1480">
    <path fill="#F9F9F9" fill-rule="evenodd" d="M798.433 222.159l12.882-20.732L1515-885h-272.123L106.157 868.984-49.53 145.28H-285l214.936 995.628-.802 1.235 1.36 1.376 7.715 35.746-2.69 3.075 2.815-2.501 28.326 131.232h.598L4.202 1480l178.37-295.528h.298l581.268-910.2 33.807-52.215z"/>
</svg>
